%YAML 1.1
%TAG !u! tag:unity3d.com,2011:
--- !u!114 &11400000
MonoBehaviour:
  m_ObjectHideFlags: 0
  m_CorrespondingSourceObject: {fileID: 0}
  m_PrefabInstance: {fileID: 0}
  m_PrefabAsset: {fileID: 0}
  m_GameObject: {fileID: 0}
  m_Enabled: 1
  m_EditorHideFlags: 0
  m_Script: {fileID: 11500000, guid: 43fcb8758b2747ddb8f065c5664bcf29, type: 3}
  m_Name: MultiTargetedTextAnimationAsset
  m_EditorClassIdentifier: 
  TextAnimation:
    TargetedAnimations:
    - AnimationFromAsset: 1
      AnimationAsset: {fileID: 11400000, guid: d66b2f67e90160546836a33dc1d938c7, type: 2}
      TextAnimation:
        DurationFromAsset: 0
        DurationAsset: {fileID: 0}
        Duration:
          Duration: 0
          DurationPerElement: 0
          TimeCurve:
            serializedVersion: 2
            m_Curve: []
            m_PreInfinity: 2
            m_PostInfinity: 2
            m_RotationOrder: 4
          Loop: 0
          LoopPerElement: 0
          InfiniteLoop: 1
          LoopAmount: 0
        TargetType: 0
        SeparationType: 0
        SeparationDelay: 0
        SeparationDelayRandomOffsetRange: {x: 0, y: 0}
        ProfileCurve:
          serializedVersion: 2
          m_Curve: []
          m_PreInfinity: 2
          m_PostInfinity: 2
          m_RotationOrder: 4
        startValueLogicType: 0
        PivotPercent: {x: 0.5, y: 0.5}
        StartColor: {r: 0, g: 0, b: 0, a: 0}
        TargetColor: {r: 0, g: 0, b: 0, a: 0}
        ColorProfile:
          serializedVersion: 2
          m_Curve: []
          m_PreInfinity: 2
          m_PostInfinity: 2
          m_RotationOrder: 4
        TargetTranslation: {x: 0, y: 0, z: 0}
        TranslationCurve:
          serializedVersion: 2
          m_Curve: []
          m_PreInfinity: 2
          m_PostInfinity: 2
          m_RotationOrder: 4
        TargetRotation: {x: 0, y: 0, z: 0}
        RotationCurve:
          serializedVersion: 2
          m_Curve: []
          m_PreInfinity: 2
          m_PostInfinity: 2
          m_RotationOrder: 4
        TargetScale: {x: 0, y: 0, z: 0}
        ScaleCurve:
          serializedVersion: 2
          m_Curve: []
          m_PreInfinity: 2
          m_PostInfinity: 2
          m_RotationOrder: 4
      Target:
        TargetsWholeText: 0
        StartIndex: 0
        EndIndex: 1
    - AnimationFromAsset: 1
      AnimationAsset: {fileID: 11400000, guid: 947cc23ccb054e040a2810dbdf95b26b, type: 2}
      TextAnimation:
        DurationFromAsset: 0
        DurationAsset: {fileID: 0}
        Duration:
          Duration: 0
          DurationPerElement: 0
          TimeCurve:
            serializedVersion: 2
            m_Curve: []
            m_PreInfinity: 2
            m_PostInfinity: 2
            m_RotationOrder: 4
          Loop: 0
          LoopPerElement: 0
          InfiniteLoop: 1
          LoopAmount: 0
        TargetType: 0
        SeparationType: 0
        SeparationDelay: 0
        SeparationDelayRandomOffsetRange: {x: 0, y: 0}
        ProfileCurve:
          serializedVersion: 2
          m_Curve: []
          m_PreInfinity: 2
          m_PostInfinity: 2
          m_RotationOrder: 4
        startValueLogicType: 0
        PivotPercent: {x: 0.5, y: 0.5}
        StartColor: {r: 0, g: 0, b: 0, a: 0}
        TargetColor: {r: 0, g: 0, b: 0, a: 0}
        ColorProfile:
          serializedVersion: 2
          m_Curve: []
          m_PreInfinity: 2
          m_PostInfinity: 2
          m_RotationOrder: 4
        TargetTranslation: {x: 0, y: 0, z: 0}
        TranslationCurve:
          serializedVersion: 2
          m_Curve: []
          m_PreInfinity: 2
          m_PostInfinity: 2
          m_RotationOrder: 4
        TargetRotation: {x: 0, y: 0, z: 0}
        RotationCurve:
          serializedVersion: 2
          m_Curve: []
          m_PreInfinity: 2
          m_PostInfinity: 2
          m_RotationOrder: 4
        TargetScale: {x: 0, y: 0, z: 0}
        ScaleCurve:
          serializedVersion: 2
          m_Curve: []
          m_PreInfinity: 2
          m_PostInfinity: 2
          m_RotationOrder: 4
      Target:
        TargetsWholeText: 0
        StartIndex: 2
        EndIndex: 3
    AnimationSeparationType: 1
    TimeDelay: 0
    RandomDelayRange: {x: 0, y: 0}
